{
    "Ubuntu": {
        "git": [
            "https://github.com/ubuntu/ubuntu-make.git",
            "https://github.com/ubuntu/snappy-playpen.git",
            "https://github.com/ubuntu/gnome-shell-extension-appindicator.git",
            "https://github.com/ubuntu/gnome-shell-communitheme.git",
            "https://github.com/ubuntu/gtk-communitheme.git",
            "https://github.com/ubuntu/face-detection-demo.git",
            "https://github.com/ubuntu/snapcraft-desktop-helpers.git",
            "https://github.com/ubuntu/snap-tutorials-code.git",
            "https://github.com/ubuntu/codelabs.git",
            "https://github.com/ubuntu/font-ubuntu.git",
            "https://github.com/ubuntu/codelabs-source.git",
            "https://github.com/ubuntu/docker-snapcraft.git",
            "https://github.com/ubuntu/tutorial-deployment.git",
            "https://github.com/ubuntu/ubuntu-report.git",
            "https://github.com/ubuntu/communitheme-sounds.git",
            "https://github.com/ubuntu/snow-on-me-snap.git",
            "https://github.com/ubuntu/communitheme-snap-helpers.git",
            "https://github.com/ubuntu/snap-theme-examples.git",
            "https://github.com/ubuntu/face-detection-web.git",
            "https://github.com/ubuntu/christmas-music-carousel-snap.git",
            "https://github.com/ubuntu/uupgrade-docker.git",
            "https://github.com/ubuntu/uupgrade-web.git",
            "https://github.com/ubuntu/uupgrade-worker.git",
            "https://github.com/ubuntu/simple-webserver-part.git",
            "https://github.com/ubuntu/booth-demo-manager.git",
            "https://github.com/ubuntu/booth-demo-websites.git",
            "https://github.com/ubuntu/snaps-demo-manager.git",
            "https://github.com/ubuntu/ubuntu-core-slides.git",
            "https://github.com/ubuntu/test-contributions-review.git"
        ],
        "github": [
            "https://github.com/ubuntu/ubuntu-make",
            "https://github.com/ubuntu/snappy-playpen",
            "https://github.com/ubuntu/gnome-shell-extension-appindicator",
            "https://github.com/ubuntu/gnome-shell-communitheme",
            "https://github.com/ubuntu/gtk-communitheme",
            "https://github.com/ubuntu/face-detection-demo",
            "https://github.com/ubuntu/snapcraft-desktop-helpers",
            "https://github.com/ubuntu/snap-tutorials-code",
            "https://github.com/ubuntu/codelabs",
            "https://github.com/ubuntu/font-ubuntu",
            "https://github.com/ubuntu/codelabs-source",
            "https://github.com/ubuntu/docker-snapcraft",
            "https://github.com/ubuntu/tutorial-deployment",
            "https://github.com/ubuntu/ubuntu-report",
            "https://github.com/ubuntu/communitheme-sounds",
            "https://github.com/ubuntu/snow-on-me-snap",
            "https://github.com/ubuntu/communitheme-snap-helpers",
            "https://github.com/ubuntu/snap-theme-examples",
            "https://github.com/ubuntu/face-detection-web",
            "https://github.com/ubuntu/christmas-music-carousel-snap",
            "https://github.com/ubuntu/uupgrade-docker",
            "https://github.com/ubuntu/uupgrade-web",
            "https://github.com/ubuntu/uupgrade-worker",
            "https://github.com/ubuntu/simple-webserver-part",
            "https://github.com/ubuntu/booth-demo-manager",
            "https://github.com/ubuntu/booth-demo-websites",
            "https://github.com/ubuntu/snaps-demo-manager",
            "https://github.com/ubuntu/ubuntu-core-slides",
            "https://github.com/ubuntu/test-contributions-review"
        ],
        "pipermail" : [
            "https://lists.ubuntu.com/archives/ubuntu-users/",
            "https://lists.ubuntu.com/archives/edubuntu-users/",
            "https://lists.ubuntu.com/archives/kubuntu-users/",
            "https://lists.ubuntu.com/archives/lubuntu-users/",
            "https://lists.ubuntu.com/archives/ubuntu-studio-users/",
            "https://lists.ubuntu.com/archives/ubuntukylin-users/",
            "https://lists.ubuntu.com/archives/xubuntu-users/"
        ],
        "meetup" : [
            "Docker-Paris",
            "ILUG-C",
            "Open-Source-and-Free-Software-in-Israel",
            "ilugdelhi",
            "Seattle-Kubernetes-Meetup",
            "Linux-Users-of-Victoria",
            "Docker-Santiago",
            "Docker-Minneapolis",
            "ALE-Atlanta-Linux-Enthusiasts",
            "wclug-org",
            "Philosophical-Cafe-Gaia",
            "Sydney-Linux-User-Group",
            "Linux-Senegal",
            "SVLUG-Silicon-Valley-Linux-Users-Group",
            "Linux-Montreal",
            "Michigan-usr-group-Linux-Users-Group-in-Farmington-Hills",
            "desktop-linux-users-group",
            "LinuxLA",
            "SaintLouis_FullStack_WebDevelopment",
            "Phoenix-Linux-Users-Group",
            "AuckLUG",
            "ninetechtalkthursday",
            "UUASC26",
            "DevOps-NYC",
            "trilug",
            "Docker-Miami",
            "sfvlug",
            "Nashville-Linux-Users-Group",
            "rendszergazda",
            "Ahmedabad-Open-Source-Linux-Meetup-Group",
            "ubuntuvancouver",
            "CentOS-India",
            "Giroll-Gironde-Logiciel-Libre-Bordeaux",
            "Beirut-Open-Source-Society",
            "Los-Angeles-Kubernetes-Meetup",
            "South-Florida-Linux-Users-Group-FLUX",
            "Ubuntu-fr",
            "PenguinsUnbound",
            "NOVA-DevOps",
            "Jozi-Linux-User-Group-JLUG",
            "nawsug",
            "Contain",
            "Suncoast-LUG",
            "ubuntu-cat",
            "cp-lug",
            "Docker-Salvador",
            "Linux-Amsterdam",
            "Philadelphia-Linux-User-Group-Meetup",
            "Linuxx",
            "superusers-vlc",
            "Dublin-Linux-User-Group",
            "jupiterbroadcasting",
            "Cumulus-Linux-and-Open-Networking-Bay-Area",
            "Networking-Profesional-IT",
            "Ubuntu-California",
            "JaxLUG",
            "GNU-Linux-BSD-Mumbai-Meetup",
            "OKC-LUGnuts",
            "IXLiverpool",
            "Vancouver-Linux-Desktop-Meetup",
            "VIT-Active-Linux-Group-VALU",
            "RTP-Cumulus-Linux-Open-Networking-Meetup",
            "RVALUG",
            "LinuxerosGDL",
            "LinuxChixLA",
            "Lawrence-Linux-User-Group",
            "ubuntufl",
            "Tallinn-Linux-User-Group",
            "Ubuntu-Espana",
            "Server-Administration-for-Web-Developers",
            "Ubuntu-Arizona",
            "Lucknow-learners",
            "fossetcon",
            "Unigroup",
            "Cleveland-LUG",
            "magicalhappenings",
            "Berlin-Open-Source-Eats-n-Drinks",
            "West-Yorkshire-Linux-users-group",
            "Nederlandse-Linux-Gebruikers-Groep",
            "gnu-linux-valencia",
            "linux-ubuntu",
            "Tijuana-Linux-Meetup",
            "Linux-en-Ciudad-de-Mexico",
            "ChicagoLUG",
            "San-Diego-Cybersecurity-Immersion-Group",
            "Ubuntu-UK-Local-Community-Team",
            "SysElevenTechmeetups",
            "DenBoschLinux",
            "Open-Source-Staunton",
            "DC-DMV-Ubuntu-Meetup-Group",
            "Opsmotion",
            "gatorlug",
            "UlmHackers",
            "Ninux-Wireless-Community-Network",
            "Software-Libre-Bilbao",
            "3D-Soma-Laboratori-tecnologic-i-impressio-3D-a-Palma",
            "ubuntu-gr",
            "Bellingham-Linux-User-Group-BLUG",
            "hsvlug",
            "Linux-Certificacion-Mexico",
            "Linux-Nijmegen",
            "Linux-User-Group-Boblingen",
            "The-Howick-Linux-Users-Group",
            "FoxValleyLUG",
            "CPOSC_",
            "ZFS-in-the-Bay",
            "BSD-Users-Group",
            "Linux-Presentation-Day",
            "Vancouver-Linux-Meetup",
            "devops-tallahassee",
            "Boulder-Ubuntu-Contributionism",
            "Region-Heilbronn-Linux-User-Group",
            "15-Sesja-Linuksowa",
            "LancLUG",
            "OSWorldPL",
            "SQL-Server-on-Linux",
            "servers-for-web-developers",
            "Bury-Linux-and-Open-Source-Meetup",
            "Rogue-Operators",
            "roalug",
            "OSE-MUG-Open-Source-Enthusiasts-Meetup-User-Group",
            "LinuxBarbados",
            "Unix-Linux-Shell-Scripting",
            "GNU-Linux-Shell-cada-dia-un-comando",
            "AnnapolisLUG",
            "Meetup-Linux-Fortaleza-Ceara",
            "Puebla-Linux-Users-Group-PLUG",
            "Tux-UAI",
            "Bloomington-GNU-Linux-Meetup",
            "Curso-Introdutorio-3-em-1-Administracao-de-servicos-Linux",
            "Treinamento-Firewall-Linux-e-BSD-Uma-abordagem-Pratica",
            "Rotterdam-Linux-Meetup",
            "meetup-group-VduzRHuj",
            "Quad-Cities-Linux-User-Group-QCLUG",
            "Charleston-WV-Linux-User-Group",
            "Lagos-Linux-Meetup",
            "IBM-Power-Moscow",
            "LALUG-Landshuter-Linux-User-Group-Stammtisch",
            "Yonkers-Developers-Meetup",
            "Linux-And-Linux-Animation-Meetup-In-Lansing",
            "ubuntu-loco-san-francisco",
            "Southern-California-Ubuntu-Philosophy-Community",
            "Victoria-Linux-Meetup",
            "Buffalo-Linux-Meetup",
            "Normandie-Linux-User-Group",
            "Bangkok-Sysadmin-Meetup",
            "Cerritos-IT-Dev-Ops-Sys-Admin-Virtualization-Meetup",
            "Rutland-Linux-User-Group-Meetup",
            "ubuntu-loco-new-york-city",
            "Linux-Open-Source-Tilburg",
            "Bay-Area-Immutable-Cloud-Security-Meetup",
            "Ha-Noi-Docker-Rancher-Meetup",
            "Battle-Creek-Kalamazoo-Information-Technology-Meetup",
            "Bedford-Linux-User-Group",
            "New-York-Immutable-Cloud-Security-Meetup",
            "Kahului-Open-Source-Meetup",
            "BLUG-Blackfoot-Linux-User-Group",
            "Linux-Center"
        ],
        "stackexchange": [
            "https://askubuntu.com/"
        ]
    },
    "CanonicalLtd": {
        "git": [
            "https://github.com/CanonicalLtd/react-native.git",
            "https://github.com/CanonicalLtd/dqlite.git",
            "https://github.com/CanonicalLtd/subiquity.git",
            "https://github.com/CanonicalLtd/prometheus-openstack-exporter.git",
            "https://github.com/CanonicalLtd/multipass.git",
            "https://github.com/CanonicalLtd/ubuntu-image.git",
            "https://github.com/CanonicalLtd/lightdm.git",
            "https://github.com/CanonicalLtd/desktop-design.git",
            "https://github.com/CanonicalLtd/serial-vault.git",
            "https://github.com/CanonicalLtd/jujucharms.com.git",
            "https://github.com/CanonicalLtd/maas-docs.git",
            "https://github.com/CanonicalLtd/landscape-client.git",
            "https://github.com/CanonicalLtd/netplan.git",
            "https://github.com/CanonicalLtd/probert.git",
            "https://github.com/CanonicalLtd/uitk2.git",
            "https://github.com/CanonicalLtd/juju-cards.git",
            "https://github.com/CanonicalLtd/ceph_safe_disk.git",
            "https://github.com/CanonicalLtd/go-grpc-sql.git",
            "https://github.com/CanonicalLtd/DatacenterTopology.git",
            "https://github.com/CanonicalLtd/basic-auth-service.git",
            "https://github.com/CanonicalLtd/DiagCephCluster.git",
            "https://github.com/CanonicalLtd/landscape.git",
            "https://github.com/CanonicalLtd/UCWifiConnect.git",
            "https://github.com/CanonicalLtd/curtin.git",
            "https://github.com/CanonicalLtd/raft-membership.git",
            "https://github.com/CanonicalLtd/cpc-image-customization-examples.git",
            "https://github.com/CanonicalLtd/archive-auth-mirror.git",
            "https://github.com/CanonicalLtd/ubuntu-advantage-script.git",
            "https://github.com/CanonicalLtd/canonipy.git",
            "https://github.com/CanonicalLtd/yarn-packaging.git",
            "https://github.com/CanonicalLtd/aws-snap.git",
            "https://github.com/CanonicalLtd/beaver-charm.git",
            "https://github.com/CanonicalLtd/documentation-builder-test-builder-repo.git",
            "https://github.com/CanonicalLtd/subiquity-deb.git",
            "https://github.com/CanonicalLtd/make-system-user-nonet.git",
            "https://github.com/CanonicalLtd/juju-interface-basic-auth-check.git",
            "https://github.com/CanonicalLtd/charms_ceph.git",
            "https://github.com/CanonicalLtd/naming-client.git",
            "https://github.com/CanonicalLtd/serial-vault-charm.git",
            "https://github.com/CanonicalLtd/raft-test.git",
            "https://github.com/CanonicalLtd/candid-deb.git",
            "https://github.com/CanonicalLtd/prometheus-node-exporter-charm.git",
            "https://github.com/CanonicalLtd/txlongpoll.git",
            "https://github.com/CanonicalLtd/redis.git",
            "https://github.com/CanonicalLtd/raft-http.git",
            "https://github.com/CanonicalLtd/decode_ceph.git",
            "https://github.com/CanonicalLtd/docs-cloud.git",
            "https://github.com/CanonicalLtd/serial-vault-selfhosted.git",
            "https://github.com/CanonicalLtd/basic-auth-service-charm.git",
            "https://github.com/CanonicalLtd/serial-vault-services-bundle.git",
            "https://github.com/CanonicalLtd/ubuntu-serverguide.git",
            "https://github.com/CanonicalLtd/candid.git",
            "https://github.com/CanonicalLtd/layer-metrics.git",
            "https://github.com/CanonicalLtd/serial-vault-bundle.git",
            "https://github.com/CanonicalLtd/ceph-mon.git",
            "https://github.com/CanonicalLtd/candidclient.git",
            "https://github.com/CanonicalLtd/documentation-builder-test-prepare-branches.git",
            "https://github.com/CanonicalLtd/hardening-ssh-tests.git",
            "https://github.com/CanonicalLtd/unlock_ceph.git"
        ],
        "github": [
            "https://github.com/CanonicalLtd/react-native",
            "https://github.com/CanonicalLtd/dqlite",
            "https://github.com/CanonicalLtd/subiquity",
            "https://github.com/CanonicalLtd/prometheus-openstack-exporter",
            "https://github.com/CanonicalLtd/multipass",
            "https://github.com/CanonicalLtd/ubuntu-image",
            "https://github.com/CanonicalLtd/lightdm",
            "https://github.com/CanonicalLtd/desktop-design",
            "https://github.com/CanonicalLtd/serial-vault",
            "https://github.com/CanonicalLtd/jujucharms.com",
            "https://github.com/CanonicalLtd/maas-docs",
            "https://github.com/CanonicalLtd/landscape-client",
            "https://github.com/CanonicalLtd/netplan",
            "https://github.com/CanonicalLtd/probert",
            "https://github.com/CanonicalLtd/uitk2",
            "https://github.com/CanonicalLtd/juju-cards",
            "https://github.com/CanonicalLtd/ceph_safe_disk",
            "https://github.com/CanonicalLtd/go-grpc-sql",
            "https://github.com/CanonicalLtd/DatacenterTopology",
            "https://github.com/CanonicalLtd/basic-auth-service",
            "https://github.com/CanonicalLtd/DiagCephCluster",
            "https://github.com/CanonicalLtd/landscape",
            "https://github.com/CanonicalLtd/UCWifiConnect",
            "https://github.com/CanonicalLtd/curtin",
            "https://github.com/CanonicalLtd/raft-membership",
            "https://github.com/CanonicalLtd/cpc-image-customization-examples",
            "https://github.com/CanonicalLtd/archive-auth-mirror",
            "https://github.com/CanonicalLtd/ubuntu-advantage-script",
            "https://github.com/CanonicalLtd/canonipy",
            "https://github.com/CanonicalLtd/yarn-packaging",
            "https://github.com/CanonicalLtd/aws-snap",
            "https://github.com/CanonicalLtd/beaver-charm",
            "https://github.com/CanonicalLtd/documentation-builder-test-builder-repo",
            "https://github.com/CanonicalLtd/subiquity-deb",
            "https://github.com/CanonicalLtd/make-system-user-nonet",
            "https://github.com/CanonicalLtd/juju-interface-basic-auth-check",
            "https://github.com/CanonicalLtd/charms_ceph",
            "https://github.com/CanonicalLtd/naming-client",
            "https://github.com/CanonicalLtd/serial-vault-charm",
            "https://github.com/CanonicalLtd/raft-test",
            "https://github.com/CanonicalLtd/candid-deb",
            "https://github.com/CanonicalLtd/prometheus-node-exporter-charm",
            "https://github.com/CanonicalLtd/txlongpoll",
            "https://github.com/CanonicalLtd/redis",
            "https://github.com/CanonicalLtd/raft-http",
            "https://github.com/CanonicalLtd/decode_ceph",
            "https://github.com/CanonicalLtd/docs-cloud",
            "https://github.com/CanonicalLtd/serial-vault-selfhosted",
            "https://github.com/CanonicalLtd/basic-auth-service-charm",
            "https://github.com/CanonicalLtd/serial-vault-services-bundle",
            "https://github.com/CanonicalLtd/ubuntu-serverguide",
            "https://github.com/CanonicalLtd/candid",
            "https://github.com/CanonicalLtd/layer-metrics",
            "https://github.com/CanonicalLtd/serial-vault-bundle",
            "https://github.com/CanonicalLtd/ceph-mon",
            "https://github.com/CanonicalLtd/candidclient",
            "https://github.com/CanonicalLtd/documentation-builder-test-prepare-branches",
            "https://github.com/CanonicalLtd/hardening-ssh-tests",
            "https://github.com/CanonicalLtd/unlock_ceph"
        ]
    },
    "UBports": {
        "git": [
            "https://github.com/ubports/unity8.git",
            "https://github.com/ubports/ubuntu-touch.git",
            "https://github.com/ubports/ubuntu-touch-for-oneplus-one.git",
            "https://github.com/ubports/ubports-installer.git",
            "https://github.com/ubports/unity8-desktop-install-tools.git",
            "https://github.com/ubports/telegram-app.git",
            "https://github.com/ubports/ubports.com.git",
            "https://github.com/ubports/docs.ubports.com.git",
            "https://github.com/ubports/android_device_fairphone_fp2.git",
            "https://github.com/ubports/device-files.git",
            "https://github.com/ubports/wiki.ubports.com.git",
            "https://github.com/ubports/android.git",
            "https://github.com/ubports/mir.git",
            "https://github.com/ubports/devices.ubports.com.git",
            "https://github.com/ubports/terminal-app.git",
            "https://github.com/ubports/blog.ubports.com.git",
            "https://github.com/ubports/camera-app.git",
            "https://github.com/ubports/devices.git",
            "https://github.com/ubports/ubports-app.git",
            "https://github.com/ubports/qtubuntu.git",
            "https://github.com/ubports/music-app.git",
            "https://github.com/ubports/filemanager-app.git",
            "https://github.com/ubports/qqc2-suru-style.git",
            "https://github.com/ubports/qtmir.git",
            "https://github.com/ubports/xmir.git",
            "https://github.com/ubports/ubuntu-touch-session.git",
            "https://github.com/ubports/clock-app.git",
            "https://github.com/ubports/mir-android-platform.git",
            "https://github.com/ubports/stats.ubports.com.git",
            "https://github.com/ubports/system-settings.git",
            "https://github.com/ubports/ubuntu-ui-toolkit.git",
            "https://github.com/ubports/docviewer-app.git",
            "https://github.com/ubports/ubuntu-touch.io.git",
            "https://github.com/ubports/lxc-android-config.git",
            "https://github.com/ubports/timekeeper.git",
            "https://github.com/ubports/indicator-datetime.git",
            "https://github.com/ubports/telepathy-ofono.git",
            "https://github.com/ubports/webbrowser-app.git",
            "https://github.com/ubports/qtwebengine-opensource-src-packaging.git",
            "https://github.com/ubports/kernel_krillin.git",
            "https://github.com/ubports/github_fetch_hook.git",
            "https://github.com/ubports/initramfs-tools-ubuntu-touch.git",
            "https://github.com/ubports/unity-api.git",
            "https://github.com/ubports/qcom-display.git",
            "https://github.com/ubports/upstart.git",
            "https://github.com/ubports/aethercast.git",
            "https://github.com/ubports/telephony-service.git",
            "https://github.com/ubports/repowerd.git",
            "https://github.com/ubports/ubuntu-touch-meta.git",
            "https://github.com/ubports/ubuntu-html5-theme.git",
            "https://github.com/ubports/miral-xappd.git",
            "https://github.com/ubports/messaging-app.git",
            "https://github.com/ubports/qtpim-opensource-src-packaging.git",
            "https://github.com/ubports/miral.git",
            "https://github.com/ubports/kdeclarative-packaging.git",
            "https://github.com/ubports/keeper.git",
            "https://github.com/ubports/libhybris.git",
            "https://github.com/ubports/gallery-app.git",
            "https://github.com/ubports/ubports-boot.git",
            "https://github.com/ubports/livecd-rootfs.git",
            "https://github.com/ubports/calendar-app.git",
            "https://github.com/ubports/address-book-app.git",
            "https://github.com/ubports/weather-app.git",
            "https://github.com/ubports/dialer-app.git",
            "https://github.com/ubports/yumi-3d-models.git",
            "https://github.com/ubports/libsdl2.git",
            "https://github.com/ubports/unity8-desktop-session.git",
            "https://github.com/ubports/libindicator.git",
            "https://github.com/ubports/api-docs.git",
            "https://github.com/ubports/qtubuntu-print.git",
            "https://github.com/ubports/promise-pipeline-node.git",
            "https://github.com/ubports/ubuntu-app-launch.git",
            "https://github.com/ubports/qtsvg-opensource-src-packaging.git",
            "https://github.com/ubports/qtwebkit-opensource-src-packaging.git",
            "https://github.com/ubports/qtquickcontrols-opensource-src-packaging.git",
            "https://github.com/ubports/buteo-sync-plugins-contacts.git",
            "https://github.com/ubports/qtbase-opensource-src.git",
            "https://github.com/ubports/keyboard-component.git",
            "https://github.com/ubports/ubuntu_prebuilt_initrd_debs.git",
            "https://github.com/ubports/unity8-dash.git",
            "https://github.com/ubports/android-tools-node-module.git",
            "https://github.com/ubports/libaccounts-qt.git",
            "https://github.com/ubports/signond.git",
            "https://github.com/ubports/unity-notifications.git",
            "https://github.com/ubports/ubuntu-download-manager.git",
            "https://github.com/ubports/docs.ubports.com-localization.git",
            "https://github.com/ubports/android_kernel_sony_msm8994.git",
            "https://github.com/ubports/libqofono.git",
            "https://github.com/ubports/location-service.git",
            "https://github.com/ubports/android_external_sepolicy.git",
            "https://github.com/ubports/ubuntu-touch-sdk-api-scripts.git",
            "https://github.com/ubports/qtmultimedia-opensource-src-packaging.git",
            "https://github.com/ubports/qtwebsockets-opensource-src-packaging.git",
            "https://github.com/ubports/unity-scope-click.git",
            "https://github.com/ubports/indicator-keyboard.git",
            "https://github.com/ubports/content-hub.git",
            "https://github.com/ubports/chromium.git",
            "https://github.com/ubports/settings-components.git",
            "https://github.com/ubports/qt3d-opensource-src-packaging.git",
            "https://github.com/ubports/qtubuntu-sensors.git",
            "https://github.com/ubports/autopilot.git",
            "https://github.com/ubports/trust-store.git",
            "https://github.com/ubports/ubuntu-themes.git",
            "https://github.com/ubports/qtimageformats-opensource-src-packaging.git",
            "https://github.com/ubports/wpa.git",
            "https://github.com/ubports/ubuntu-printing-app.git",
            "https://github.com/ubports/qtsensors-opensource-src-packaging.git",
            "https://github.com/ubports/media-hub.git",
            "https://github.com/ubports/qtconnectivity-opensource-src-packaging.git",
            "https://github.com/ubports/libphonenumber-packaging.git",
            "https://github.com/ubports/dbus-cpp-packaging.git",
            "https://github.com/ubports/bluez-packaging.git",
            "https://github.com/ubports/gammaray-packaging.git",
            "https://github.com/ubports/ubuntu-seeds.git",
            "https://github.com/ubports/unity-scopes-api.git",
            "https://github.com/ubports/zmqpp-packaging.git",
            "https://github.com/ubports/signon-ui.git",
            "https://github.com/ubports/qtsystems-opensource-src-packaging.git",
            "https://github.com/ubports/android_external_gpg.git",
            "https://github.com/ubports/buteo-syncfw-qml.git",
            "https://github.com/ubports/ubuntu-location-provider-geoclue2.git",
            "https://github.com/ubports/indicator-location.git",
            "https://github.com/ubports/qtubuntu-camera.git",
            "https://github.com/ubports/bacon2d.git",
            "https://github.com/ubports/language-pack-touch-cy.git",
            "https://github.com/ubports/dbus-test-runner.git",
            "https://github.com/ubports/qtubuntu-media.git",
            "https://github.com/ubports/indicator-printers.git",
            "https://github.com/ubports/policykit-unity8.git",
            "https://github.com/ubports/indicator-network.git",
            "https://github.com/ubports/ubuntu_prebuilt_initrd.git",
            "https://github.com/ubports/ubuntu-prebuilts.git",
            "https://github.com/ubports/crossbuilder.git",
            "https://github.com/ubports/libsdl2-packaging.git",
            "https://github.com/ubports/sensorfw.git",
            "https://github.com/ubports/qtvideo-node.git",
            "https://github.com/ubports/unity-webapps-qml.git",
            "https://github.com/ubports/signon.git",
            "https://github.com/ubports/unity8.io.git",
            "https://github.com/ubports/system-image-node-module.git",
            "https://github.com/ubports/rootstock-ng.git",
            "https://github.com/ubports/android_external_koush_Superuser.git",
            "https://github.com/ubports/indicator-sound.git",
            "https://github.com/ubports/indicator-display.git",
            "https://github.com/ubports/ubuntu-system-settings-online-accounts.git",
            "https://github.com/ubports/oxide.git",
            "https://github.com/ubports/qtgraphicaleffects-opensource-src-packaging.git",
            "https://github.com/ubports/debootstrap.git",
            "https://github.com/ubports/libqtdbusmock.git",
            "https://github.com/ubports/mediascanner2.git",
            "https://github.com/ubports/geonames.git",
            "https://github.com/ubports/usensord.git",
            "https://github.com/ubports/api.ubports.com.git",
            "https://github.com/ubports/language-pack-touch-br.git",
            "https://github.com/ubports/unity8-coreapps-meta.git",
            "https://github.com/ubports/notes-app.git",
            "https://github.com/ubports/calculator-app.git",
            "https://github.com/ubports/buteo-sync-plugin-carddav.git",
            "https://github.com/ubports/thumbnailer.git",
            "https://github.com/ubports/unity-scopes-shell.git",
            "https://github.com/ubports/gsettings-ubuntu-touch-schemas.git",
            "https://github.com/ubports/libsignon-glib.git",
            "https://github.com/ubports/pyotherside-packaging.git",
            "https://github.com/ubports/dbus-property-service.git",
            "https://github.com/ubports/unity8-build.git",
            "https://github.com/ubports/net-cpp-packaging.git",
            "https://github.com/ubports/system-image.git",
            "https://github.com/ubports/indicator-power.git",
            "https://github.com/ubports/android_external_busybox.git",
            "https://github.com/ubports/libaccounts-glib.git",
            "https://github.com/ubports/qtsystems-opensource-src.git",
            "https://github.com/ubports/android-headers.git",
            "https://github.com/ubports/mediaplayer-app.git",
            "https://github.com/ubports/apparmor-easyprof-ubuntu.git",
            "https://github.com/ubports/fonts-emojione-packaging.git",
            "https://github.com/ubports/history-service.git",
            "https://github.com/ubports/goget-ubuntu-touch.git",
            "https://github.com/ubports/libqtxdg-packaging.git",
            "https://github.com/ubports/kernel_arale.git",
            "https://github.com/ubports/ubports-api-node-module.git",
            "https://github.com/ubports/signon-plugin-oauth2.git",
            "https://github.com/ubports/gst-plugins-bad-packaging.git",
            "https://github.com/ubports/ubports-installer-core-module.git",
            "https://github.com/ubports/build-scripts.git",
            "https://github.com/ubports/android-tools.git",
            "https://github.com/ubports/sync-monitor.git",
            "https://github.com/ubports/kernel_bq_m10.git",
            "https://github.com/ubports/accounts-qml-module.git",
            "https://github.com/ubports/qcom_conn_init.git",
            "https://github.com/ubports/qcom-keymaster.git",
            "https://github.com/ubports/iphone.ubports.com.git",
            "https://github.com/ubports/qtbase-opensource-src-packaging.git",
            "https://github.com/ubports/address-book-service.git",
            "https://github.com/ubports/android_kernel_fairphone_fp2.git",
            "https://github.com/ubports/ubports-updater-node-module.git",
            "https://github.com/ubports/buteo-syncfw-ubuntu.git",
            "https://github.com/ubports/kernel_turbo.git",
            "https://github.com/ubports/qttranslations-opensource-src-packaging.git",
            "https://github.com/ubports/oxide-tools.git",
            "https://github.com/ubports/oxide-packaging.git",
            "https://github.com/ubports/ubuntu-push.git",
            "https://github.com/ubports/gsettings-qt.git",
            "https://github.com/ubports/qtwebchannel-opensource-src-packaging.git",
            "https://github.com/ubports/portcraft.git",
            "https://github.com/ubports/indicator-transfer-buteo.git",
            "https://github.com/ubports/emojione.git",
            "https://github.com/ubports/qtvirtualkeyboard-opensource-src-packaging.git",
            "https://github.com/ubports/install-tools.git",
            "https://github.com/ubports/system-image-server.git",
            "https://github.com/ubports/indicator-bluetooth.git",
            "https://github.com/ubports/indicator-application.git",
            "https://github.com/ubports/gst-plugins-bad1.0.git",
            "https://github.com/ubports/android_external_scrypt.git",
            "https://github.com/ubports/qtlocation-opensource-src-packaging.git",
            "https://github.com/ubports/libusermetrics.git",
            "https://github.com/ubports/click.git",
            "https://github.com/ubports/go-unityscopes.git",
            "https://github.com/ubports/systemd-packaging.git",
            "https://github.com/ubports/ubuntuone-credentials.git",
            "https://github.com/ubports/pulseaudio-modules-droid2.git",
            "https://github.com/ubports/android_external_libcxx.git",
            "https://github.com/ubports/depot_tools.git",
            "https://github.com/ubports/oxide_ffmpeg.git",
            "https://github.com/ubports/ubuntu-ui-extras.git",
            "https://github.com/ubports/indicator-transfer.git",
            "https://github.com/ubports/indicator-session.git",
            "https://github.com/ubports/ubuntu_platform-api.git",
            "https://github.com/ubports/ubuntu_assets.git",
            "https://github.com/ubports/appmenu-qt5.git",
            "https://github.com/ubports/network-manager-packaging.git",
            "https://github.com/ubports/qtquickcontrols2-opensource-src.git",
            "https://github.com/ubports/sudoku-app.git",
            "https://github.com/ubports/android_external_pigz.git",
            "https://github.com/ubports/cmake-extras.git",
            "https://github.com/ubports/platform-api.git",
            "https://github.com/ubports/qtxmlpatterns-opensource-src-packaging.git",
            "https://github.com/ubports/qtfeedback-opensource-src-packaging.git",
            "https://github.com/ubports/ubuntu_upstart-property-watcher.git",
            "https://github.com/ubports/indicator-messages.git",
            "https://github.com/ubports/urfkill-packaging.git",
            "https://github.com/ubports/qtchooser-packaging.git",
            "https://github.com/ubports/mesa.git",
            "https://github.com/ubports/qtwayland-opensource-src-packaging.git",
            "https://github.com/ubports/akonadi-packaging.git",
            "https://github.com/ubports/pulseaudio-packaging.git",
            "https://github.com/ubports/build-tools.git",
            "https://github.com/ubports/translate.ubports.com.git",
            "https://github.com/ubports/buteo-syncfw.git",
            "https://github.com/ubports/qttools-opensource-src-packaging.git",
            "https://github.com/ubports/unity-system-compositor.git",
            "https://github.com/ubports/pay-service.git",
            "https://github.com/ubports/url-dispatcher.git",
            "https://github.com/ubports/qtdeclarative-opensource-src-packaging.git",
            "https://github.com/ubports/libqtdbustest.git",
            "https://github.com/ubports/kernel_vegetahd.git",
            "https://github.com/ubports/tone-generator.git",
            "https://github.com/ubports/qmenumodel.git",
            "https://github.com/ubports/qtcontacts-sqlite.git",
            "https://github.com/ubports/qtscript-opensource-src-packaging.git",
            "https://github.com/ubports/ciborium.git",
            "https://github.com/ubports/maliit-framework-packaging.git",
            "https://github.com/ubports/biometryd.git",
            "https://github.com/ubports/unity8-pasted.git",
            "https://github.com/ubports/telepathy-qt-packaging.git",
            "https://github.com/ubports/unity-scope-mediascanner.git"
        ],
        "github": [
            "https://github.com/ubports/unity8",
            "https://github.com/ubports/ubuntu-touch",
            "https://github.com/ubports/ubuntu-touch-for-oneplus-one",
            "https://github.com/ubports/ubports-installer",
            "https://github.com/ubports/unity8-desktop-install-tools",
            "https://github.com/ubports/telegram-app",
            "https://github.com/ubports/ubports.com",
            "https://github.com/ubports/docs.ubports.com",
            "https://github.com/ubports/android_device_fairphone_fp2",
            "https://github.com/ubports/device-files",
            "https://github.com/ubports/wiki.ubports.com",
            "https://github.com/ubports/android",
            "https://github.com/ubports/mir",
            "https://github.com/ubports/devices.ubports.com",
            "https://github.com/ubports/terminal-app",
            "https://github.com/ubports/blog.ubports.com",
            "https://github.com/ubports/camera-app",
            "https://github.com/ubports/devices",
            "https://github.com/ubports/ubports-app",
            "https://github.com/ubports/qtubuntu",
            "https://github.com/ubports/music-app",
            "https://github.com/ubports/filemanager-app",
            "https://github.com/ubports/qqc2-suru-style",
            "https://github.com/ubports/qtmir",
            "https://github.com/ubports/xmir",
            "https://github.com/ubports/ubuntu-touch-session",
            "https://github.com/ubports/clock-app",
            "https://github.com/ubports/mir-android-platform",
            "https://github.com/ubports/stats.ubports.com",
            "https://github.com/ubports/system-settings",
            "https://github.com/ubports/ubuntu-ui-toolkit",
            "https://github.com/ubports/docviewer-app",
            "https://github.com/ubports/ubuntu-touch.io",
            "https://github.com/ubports/lxc-android-config",
            "https://github.com/ubports/timekeeper",
            "https://github.com/ubports/indicator-datetime",
            "https://github.com/ubports/telepathy-ofono",
            "https://github.com/ubports/webbrowser-app",
            "https://github.com/ubports/qtwebengine-opensource-src-packaging",
            "https://github.com/ubports/kernel_krillin",
            "https://github.com/ubports/github_fetch_hook",
            "https://github.com/ubports/initramfs-tools-ubuntu-touch",
            "https://github.com/ubports/unity-api",
            "https://github.com/ubports/qcom-display",
            "https://github.com/ubports/upstart",
            "https://github.com/ubports/aethercast",
            "https://github.com/ubports/telephony-service",
            "https://github.com/ubports/repowerd",
            "https://github.com/ubports/ubuntu-touch-meta",
            "https://github.com/ubports/ubuntu-html5-theme",
            "https://github.com/ubports/miral-xappd",
            "https://github.com/ubports/messaging-app",
            "https://github.com/ubports/qtpim-opensource-src-packaging",
            "https://github.com/ubports/miral",
            "https://github.com/ubports/kdeclarative-packaging",
            "https://github.com/ubports/keeper",
            "https://github.com/ubports/libhybris",
            "https://github.com/ubports/gallery-app",
            "https://github.com/ubports/ubports-boot",
            "https://github.com/ubports/livecd-rootfs",
            "https://github.com/ubports/calendar-app",
            "https://github.com/ubports/address-book-app",
            "https://github.com/ubports/weather-app",
            "https://github.com/ubports/dialer-app",
            "https://github.com/ubports/yumi-3d-models",
            "https://github.com/ubports/libsdl2",
            "https://github.com/ubports/unity8-desktop-session",
            "https://github.com/ubports/libindicator",
            "https://github.com/ubports/api-docs",
            "https://github.com/ubports/qtubuntu-print",
            "https://github.com/ubports/promise-pipeline-node",
            "https://github.com/ubports/ubuntu-app-launch",
            "https://github.com/ubports/qtsvg-opensource-src-packaging",
            "https://github.com/ubports/qtwebkit-opensource-src-packaging",
            "https://github.com/ubports/qtquickcontrols-opensource-src-packaging",
            "https://github.com/ubports/buteo-sync-plugins-contacts",
            "https://github.com/ubports/qtbase-opensource-src",
            "https://github.com/ubports/keyboard-component",
            "https://github.com/ubports/ubuntu_prebuilt_initrd_debs",
            "https://github.com/ubports/unity8-dash",
            "https://github.com/ubports/android-tools-node-module",
            "https://github.com/ubports/libaccounts-qt",
            "https://github.com/ubports/signond",
            "https://github.com/ubports/unity-notifications",
            "https://github.com/ubports/ubuntu-download-manager",
            "https://github.com/ubports/docs.ubports.com-localization",
            "https://github.com/ubports/android_kernel_sony_msm8994",
            "https://github.com/ubports/libqofono",
            "https://github.com/ubports/location-service",
            "https://github.com/ubports/android_external_sepolicy",
            "https://github.com/ubports/ubuntu-touch-sdk-api-scripts",
            "https://github.com/ubports/qtmultimedia-opensource-src-packaging",
            "https://github.com/ubports/qtwebsockets-opensource-src-packaging",
            "https://github.com/ubports/unity-scope-click",
            "https://github.com/ubports/indicator-keyboard",
            "https://github.com/ubports/content-hub",
            "https://github.com/ubports/chromium",
            "https://github.com/ubports/settings-components",
            "https://github.com/ubports/qt3d-opensource-src-packaging",
            "https://github.com/ubports/qtubuntu-sensors",
            "https://github.com/ubports/autopilot",
            "https://github.com/ubports/trust-store",
            "https://github.com/ubports/ubuntu-themes",
            "https://github.com/ubports/qtimageformats-opensource-src-packaging",
            "https://github.com/ubports/wpa",
            "https://github.com/ubports/ubuntu-printing-app",
            "https://github.com/ubports/qtsensors-opensource-src-packaging",
            "https://github.com/ubports/media-hub",
            "https://github.com/ubports/qtconnectivity-opensource-src-packaging",
            "https://github.com/ubports/libphonenumber-packaging",
            "https://github.com/ubports/dbus-cpp-packaging",
            "https://github.com/ubports/bluez-packaging",
            "https://github.com/ubports/gammaray-packaging",
            "https://github.com/ubports/ubuntu-seeds",
            "https://github.com/ubports/unity-scopes-api",
            "https://github.com/ubports/zmqpp-packaging",
            "https://github.com/ubports/signon-ui",
            "https://github.com/ubports/qtsystems-opensource-src-packaging",
            "https://github.com/ubports/android_external_gpg",
            "https://github.com/ubports/buteo-syncfw-qml",
            "https://github.com/ubports/ubuntu-location-provider-geoclue2",
            "https://github.com/ubports/indicator-location",
            "https://github.com/ubports/qtubuntu-camera",
            "https://github.com/ubports/bacon2d",
            "https://github.com/ubports/language-pack-touch-cy",
            "https://github.com/ubports/dbus-test-runner",
            "https://github.com/ubports/qtubuntu-media",
            "https://github.com/ubports/indicator-printers",
            "https://github.com/ubports/policykit-unity8",
            "https://github.com/ubports/indicator-network",
            "https://github.com/ubports/ubuntu_prebuilt_initrd",
            "https://github.com/ubports/ubuntu-prebuilts",
            "https://github.com/ubports/crossbuilder",
            "https://github.com/ubports/libsdl2-packaging",
            "https://github.com/ubports/sensorfw",
            "https://github.com/ubports/qtvideo-node",
            "https://github.com/ubports/unity-webapps-qml",
            "https://github.com/ubports/signon",
            "https://github.com/ubports/unity8.io",
            "https://github.com/ubports/system-image-node-module",
            "https://github.com/ubports/rootstock-ng",
            "https://github.com/ubports/android_external_koush_Superuser",
            "https://github.com/ubports/indicator-sound",
            "https://github.com/ubports/indicator-display",
            "https://github.com/ubports/ubuntu-system-settings-online-accounts",
            "https://github.com/ubports/oxide",
            "https://github.com/ubports/qtgraphicaleffects-opensource-src-packaging",
            "https://github.com/ubports/debootstrap",
            "https://github.com/ubports/libqtdbusmock",
            "https://github.com/ubports/mediascanner2",
            "https://github.com/ubports/geonames",
            "https://github.com/ubports/usensord",
            "https://github.com/ubports/api.ubports.com",
            "https://github.com/ubports/language-pack-touch-br",
            "https://github.com/ubports/unity8-coreapps-meta",
            "https://github.com/ubports/notes-app",
            "https://github.com/ubports/calculator-app",
            "https://github.com/ubports/buteo-sync-plugin-carddav",
            "https://github.com/ubports/thumbnailer",
            "https://github.com/ubports/unity-scopes-shell",
            "https://github.com/ubports/gsettings-ubuntu-touch-schemas",
            "https://github.com/ubports/libsignon-glib",
            "https://github.com/ubports/pyotherside-packaging",
            "https://github.com/ubports/dbus-property-service",
            "https://github.com/ubports/unity8-build",
            "https://github.com/ubports/net-cpp-packaging",
            "https://github.com/ubports/system-image",
            "https://github.com/ubports/indicator-power",
            "https://github.com/ubports/android_external_busybox",
            "https://github.com/ubports/libaccounts-glib",
            "https://github.com/ubports/qtsystems-opensource-src",
            "https://github.com/ubports/android-headers",
            "https://github.com/ubports/mediaplayer-app",
            "https://github.com/ubports/apparmor-easyprof-ubuntu",
            "https://github.com/ubports/fonts-emojione-packaging",
            "https://github.com/ubports/history-service",
            "https://github.com/ubports/goget-ubuntu-touch",
            "https://github.com/ubports/libqtxdg-packaging",
            "https://github.com/ubports/kernel_arale",
            "https://github.com/ubports/ubports-api-node-module",
            "https://github.com/ubports/signon-plugin-oauth2",
            "https://github.com/ubports/gst-plugins-bad-packaging",
            "https://github.com/ubports/ubports-installer-core-module",
            "https://github.com/ubports/build-scripts",
            "https://github.com/ubports/android-tools",
            "https://github.com/ubports/sync-monitor",
            "https://github.com/ubports/kernel_bq_m10",
            "https://github.com/ubports/accounts-qml-module",
            "https://github.com/ubports/qcom_conn_init",
            "https://github.com/ubports/qcom-keymaster",
            "https://github.com/ubports/iphone.ubports.com",
            "https://github.com/ubports/qtbase-opensource-src-packaging",
            "https://github.com/ubports/address-book-service",
            "https://github.com/ubports/android_kernel_fairphone_fp2",
            "https://github.com/ubports/ubports-updater-node-module",
            "https://github.com/ubports/buteo-syncfw-ubuntu",
            "https://github.com/ubports/kernel_turbo",
            "https://github.com/ubports/qttranslations-opensource-src-packaging",
            "https://github.com/ubports/oxide-tools",
            "https://github.com/ubports/oxide-packaging",
            "https://github.com/ubports/ubuntu-push",
            "https://github.com/ubports/gsettings-qt",
            "https://github.com/ubports/qtwebchannel-opensource-src-packaging",
            "https://github.com/ubports/portcraft",
            "https://github.com/ubports/indicator-transfer-buteo",
            "https://github.com/ubports/emojione",
            "https://github.com/ubports/qtvirtualkeyboard-opensource-src-packaging",
            "https://github.com/ubports/install-tools",
            "https://github.com/ubports/system-image-server",
            "https://github.com/ubports/indicator-bluetooth",
            "https://github.com/ubports/indicator-application",
            "https://github.com/ubports/gst-plugins-bad1.0",
            "https://github.com/ubports/android_external_scrypt",
            "https://github.com/ubports/qtlocation-opensource-src-packaging",
            "https://github.com/ubports/libusermetrics",
            "https://github.com/ubports/click",
            "https://github.com/ubports/go-unityscopes",
            "https://github.com/ubports/systemd-packaging",
            "https://github.com/ubports/ubuntuone-credentials",
            "https://github.com/ubports/pulseaudio-modules-droid2",
            "https://github.com/ubports/android_external_libcxx",
            "https://github.com/ubports/depot_tools",
            "https://github.com/ubports/oxide_ffmpeg",
            "https://github.com/ubports/ubuntu-ui-extras",
            "https://github.com/ubports/indicator-transfer",
            "https://github.com/ubports/indicator-session",
            "https://github.com/ubports/ubuntu_platform-api",
            "https://github.com/ubports/ubuntu_assets",
            "https://github.com/ubports/appmenu-qt5",
            "https://github.com/ubports/network-manager-packaging",
            "https://github.com/ubports/qtquickcontrols2-opensource-src",
            "https://github.com/ubports/sudoku-app",
            "https://github.com/ubports/android_external_pigz",
            "https://github.com/ubports/cmake-extras",
            "https://github.com/ubports/platform-api",
            "https://github.com/ubports/qtxmlpatterns-opensource-src-packaging",
            "https://github.com/ubports/qtfeedback-opensource-src-packaging",
            "https://github.com/ubports/ubuntu_upstart-property-watcher",
            "https://github.com/ubports/indicator-messages",
            "https://github.com/ubports/urfkill-packaging",
            "https://github.com/ubports/qtchooser-packaging",
            "https://github.com/ubports/mesa",
            "https://github.com/ubports/qtwayland-opensource-src-packaging",
            "https://github.com/ubports/akonadi-packaging",
            "https://github.com/ubports/pulseaudio-packaging",
            "https://github.com/ubports/build-tools",
            "https://github.com/ubports/translate.ubports.com",
            "https://github.com/ubports/buteo-syncfw",
            "https://github.com/ubports/qttools-opensource-src-packaging",
            "https://github.com/ubports/unity-system-compositor",
            "https://github.com/ubports/pay-service",
            "https://github.com/ubports/url-dispatcher",
            "https://github.com/ubports/qtdeclarative-opensource-src-packaging",
            "https://github.com/ubports/libqtdbustest",
            "https://github.com/ubports/kernel_vegetahd",
            "https://github.com/ubports/tone-generator",
            "https://github.com/ubports/qmenumodel",
            "https://github.com/ubports/qtcontacts-sqlite",
            "https://github.com/ubports/qtscript-opensource-src-packaging",
            "https://github.com/ubports/ciborium",
            "https://github.com/ubports/maliit-framework-packaging",
            "https://github.com/ubports/biometryd",
            "https://github.com/ubports/unity8-pasted",
            "https://github.com/ubports/telepathy-qt-packaging",
            "https://github.com/ubports/unity-scope-mediascanner"
        ]
    },
    "Ubuntu Worlwide LoCo Teams":{
        "pipermail": [
            "http://lists.ubuntu.com/archives/ubuntu-ae",
            "http://lists.ubuntu.com/archives/ubuntu-af",
            "http://lists.ubuntu.com/archives/ubuntu-ar",
            "http://lists.ubuntu.com/archives/ubuntu-at",
            "http://lists.ubuntu.com/archives/ubuntu-au",
            "http://lists.ubuntu.com/archives/ubuntu-au-wa",
            "http://lists.ubuntu.com/archives/ubuntu-az",
            "http://lists.ubuntu.com/archives/ubuntu-ba",
            "http://lists.ubuntu.com/archives/ubuntu-bd",
            "http://lists.ubuntu.com/archives/ubuntu-be",
            "http://lists.ubuntu.com/archives/ubuntu-bf",
            "http://lists.ubuntu.com/archives/ubuntu-bg",
            "http://lists.ubuntu.com/archives/ubuntu-bh",
            "http://lists.ubuntu.com/archives/ubuntu-bo",
            "http://lists.ubuntu.com/archives/ubuntu-br",
            "http://lists.ubuntu.com/archives/ubuntu-bs",
            "http://lists.ubuntu.com/archives/ubuntu-by",
            "http://lists.ubuntu.com/archives/ubuntu-ca",
            "http://lists.ubuntu.com/archives/ubuntu-cd",
            "http://lists.ubuntu.com/archives/ubuntu-ch",
            "http://lists.ubuntu.com/archives/ubuntu-ci",
            "http://lists.ubuntu.com/archives/ubuntu-cl",
            "http://lists.ubuntu.com/archives/ubuntu-cm",
            "http://lists.ubuntu.com/archives/ubuntu-co",
            "http://lists.ubuntu.com/archives/ubuntu-cr",
            "http://lists.ubuntu.com/archives/ubuntu-cu",
            "http://lists.ubuntu.com/archives/ubuntu-cy",
            "http://lists.ubuntu.com/archives/ubuntu-de",
            "http://lists.ubuntu.com/archives/ubuntu-de-events",
            "http://lists.ubuntu.com/archives/ubuntu-dk",
            "http://lists.ubuntu.com/archives/ubuntu-do",
            "http://lists.ubuntu.com/archives/ubuntu-dz",
            "http://lists.ubuntu.com/archives/ubuntu-ec",
            "http://lists.ubuntu.com/archives/ubuntu-eg",
            "http://lists.ubuntu.com/archives/ubuntu-es",
            "http://lists.ubuntu.com/archives/ubuntu-es-es",
            "http://lists.ubuntu.com/archives/ubuntu-et",
            "http://lists.ubuntu.com/archives/ubuntu-fi",
            "http://lists.ubuntu.com/archives/ubuntu-fr",
            "http://lists.ubuntu.com/archives/ubuntu-ge",
            "http://lists.ubuntu.com/archives/ubuntu-gr",
            "http://lists.ubuntu.com/archives/ubuntu-gt",
            "http://lists.ubuntu.com/archives/ubuntu-hk",
            "http://lists.ubuntu.com/archives/ubuntu-hn",
            "http://lists.ubuntu.com/archives/ubuntu-hu",
            "http://lists.ubuntu.com/archives/ubuntu-id",
            "http://lists.ubuntu.com/archives/ubuntu-ie",
            "http://lists.ubuntu.com/archives/ubuntu-in",
            "http://lists.ubuntu.com/archives/ubuntu-in-ap",
            "http://lists.ubuntu.com/archives/ubuntu-ir",
            "http://lists.ubuntu.com/archives/ubuntu-it",
            "http://lists.ubuntu.com/archives/ubuntu-jo",
            "http://lists.ubuntu.com/archives/ubuntu-jp",
            "http://lists.ubuntu.com/archives/ubuntu-ke",
            "http://lists.ubuntu.com/archives/ubuntu-kg",
            "http://lists.ubuntu.com/archives/ubuntu-kh",
            "http://lists.ubuntu.com/archives/ubuntu-ko",
            "http://lists.ubuntu.com/archives/ubuntu-kur",
            "http://lists.ubuntu.com/archives/ubuntu-kw",
            "http://lists.ubuntu.com/archives/ubuntu-kz",
            "http://lists.ubuntu.com/archives/ubuntu-lb",
            "http://lists.ubuntu.com/archives/ubuntu-lk",
            "http://lists.ubuntu.com/archives/ubuntu-lr",
            "http://lists.ubuntu.com/archives/ubuntu-lt",
            "http://lists.ubuntu.com/archives/ubuntu-lu",
            "http://lists.ubuntu.com/archives/ubuntu-lv",
            "http://lists.ubuntu.com/archives/ubuntu-ma",
            "http://lists.ubuntu.com/archives/ubuntu-md",
            "http://lists.ubuntu.com/archives/ubuntu-me",
            "http://lists.ubuntu.com/archives/ubuntu-mg",
            "http://lists.ubuntu.com/archives/ubuntu-mk",
            "http://lists.ubuntu.com/archives/ubuntu-ml",
            "http://lists.ubuntu.com/archives/ubuntu-mt",
            "http://lists.ubuntu.com/archives/ubuntu-mx",
            "http://lists.ubuntu.com/archives/ubuntu-my",
            "http://lists.ubuntu.com/archives/ubuntu-mz",
            "http://lists.ubuntu.com/archives/ubuntu-na",
            "http://lists.ubuntu.com/archives/ubuntu-ne",
            "http://lists.ubuntu.com/archives/ubuntu-ng",
            "http://lists.ubuntu.com/archives/ubuntu-ni",
            "http://lists.ubuntu.com/archives/ubuntu-nl",
            "http://lists.ubuntu.com/archives/ubuntu-no",
            "http://lists.ubuntu.com/archives/ubuntu-np",
            "http://lists.ubuntu.com/archives/ubuntu-nz",
            "http://lists.ubuntu.com/archives/ubuntu-pa",
            "http://lists.ubuntu.com/archives/ubuntu-pe",
            "http://lists.ubuntu.com/archives/ubuntu-pg",
            "http://lists.ubuntu.com/archives/ubuntu-ph",
            "http://lists.ubuntu.com/archives/ubuntu-pk",
            "http://lists.ubuntu.com/archives/ubuntu-pl",
            "http://lists.ubuntu.com/archives/ubuntu-pr",
            "http://lists.ubuntu.com/archives/ubuntu-ps",
            "http://lists.ubuntu.com/archives/ubuntu-pt",
            "http://lists.ubuntu.com/archives/ubuntu-qa",
            "http://lists.ubuntu.com/archives/ubuntu-quebec",
            "http://lists.ubuntu.com/archives/ubuntu-re",
            "http://lists.ubuntu.com/archives/ubuntu-ro",
            "http://lists.ubuntu.com/archives/ubuntu-rs",
            "http://lists.ubuntu.com/archives/ubuntu-ru",
            "http://lists.ubuntu.com/archives/ubuntu-sd",
            "http://lists.ubuntu.com/archives/ubuntu-se",
            "http://lists.ubuntu.com/archives/ubuntu-sg",
            "http://lists.ubuntu.com/archives/ubuntu-si",
            "http://lists.ubuntu.com/archives/ubuntu-sn",
            "http://lists.ubuntu.com/archives/ubuntu-sv",
            "http://lists.ubuntu.com/archives/ubuntu-sy",
            "http://lists.ubuntu.com/archives/ubuntu-tam",
            "http://lists.ubuntu.com/archives/ubuntu-tn",
            "http://lists.ubuntu.com/archives/ubuntu-tr",
            "http://lists.ubuntu.com/archives/ubuntu-tt",
            "http://lists.ubuntu.com/archives/ubuntu-tw",
            "http://lists.ubuntu.com/archives/ubuntu-tz",
            "http://lists.ubuntu.com/archives/ubuntu-ua",
            "http://lists.ubuntu.com/archives/ubuntu-ug",
            "http://lists.ubuntu.com/archives/ubuntu-uk",
            "http://lists.ubuntu.com/archives/ubuntu-us",
            "http://lists.ubuntu.com/archives/ubuntu-us-ak",
            "http://lists.ubuntu.com/archives/ubuntu-us-al",
            "http://lists.ubuntu.com/archives/ubuntu-us-ar",
            "http://lists.ubuntu.com/archives/ubuntu-us-az",
            "http://lists.ubuntu.com/archives/ubuntu-us-ca",
            "http://lists.ubuntu.com/archives/ubuntu-us-chicago",
            "http://lists.ubuntu.com/archives/ubuntu-us-co",
            "http://lists.ubuntu.com/archives/ubuntu-us-ct",
            "http://lists.ubuntu.com/archives/ubuntu-us-dc",
            "http://lists.ubuntu.com/archives/ubuntu-us-eastcoast",
            "http://lists.ubuntu.com/archives/ubuntu-us-fl",
            "http://lists.ubuntu.com/archives/ubuntu-us-ga",
            "http://lists.ubuntu.com/archives/ubuntu-us-ia",
            "http://lists.ubuntu.com/archives/ubuntu-us-id",
            "http://lists.ubuntu.com/archives/ubuntu-us-il",
            "http://lists.ubuntu.com/archives/ubuntu-us-in",
            "http://lists.ubuntu.com/archives/ubuntu-us-ks",
            "http://lists.ubuntu.com/archives/ubuntu-us-ky",
            "http://lists.ubuntu.com/archives/ubuntu-us-la",
            "http://lists.ubuntu.com/archives/ubuntu-us-ma",
            "http://lists.ubuntu.com/archives/ubuntu-us-md",
            "http://lists.ubuntu.com/archives/ubuntu-us-me",
            "http://lists.ubuntu.com/archives/ubuntu-us-mi",
            "http://lists.ubuntu.com/archives/ubuntu-us-mn",
            "http://lists.ubuntu.com/archives/ubuntu-us-mo",
            "http://lists.ubuntu.com/archives/ubuntu-us-ms",
            "http://lists.ubuntu.com/archives/ubuntu-us-nc",
            "http://lists.ubuntu.com/archives/ubuntu-us-nd",
            "http://lists.ubuntu.com/archives/ubuntu-us-ne",
            "http://lists.ubuntu.com/archives/ubuntu-us-nh",
            "http://lists.ubuntu.com/archives/ubuntu-us-nj",
            "http://lists.ubuntu.com/archives/ubuntu-us-nm",
            "http://lists.ubuntu.com/archives/ubuntu-us-nv",
            "http://lists.ubuntu.com/archives/ubuntu-us-oh",
            "http://lists.ubuntu.com/archives/ubuntu-us-ok",
            "http://lists.ubuntu.com/archives/ubuntu-us-or",
            "http://lists.ubuntu.com/archives/ubuntu-us-pa",
            "http://lists.ubuntu.com/archives/ubuntu-us-pnw",
            "http://lists.ubuntu.com/archives/ubuntu-us-ri",
            "http://lists.ubuntu.com/archives/ubuntu-us-sc",
            "http://lists.ubuntu.com/archives/ubuntu-us-sd",
            "http://lists.ubuntu.com/archives/ubuntu-us-tn",
            "http://lists.ubuntu.com/archives/ubuntu-us-tx",
            "http://lists.ubuntu.com/archives/ubuntu-us-tx-dallas",
            "http://lists.ubuntu.com/archives/ubuntu-us-ut",
            "http://lists.ubuntu.com/archives/ubuntu-us-va",
            "http://lists.ubuntu.com/archives/ubuntu-us-vt",
            "http://lists.ubuntu.com/archives/ubuntu-us-wa",
            "http://lists.ubuntu.com/archives/ubuntu-us-wi",
            "http://lists.ubuntu.com/archives/ubuntu-us-wv",
            "http://lists.ubuntu.com/archives/ubuntu-uy",
            "http://lists.ubuntu.com/archives/ubuntu-ve",
            "http://lists.ubuntu.com/archives/ubuntu-vn",
            "http://lists.ubuntu.com/archives/ubuntu-za",
            "http://lists.ubuntu.com/archives/ubuntu-zh",
            "http://lists.ubuntu.com/archives/ubuntu-zm",
            "http://lists.ubuntu.com/archives/ubuntu-zw",
            "http://lists.ubuntu.com/archives/kubuntu-de",
            "http://lists.ubuntu.com/archives/loco-contacts",
            "http://lists.ubuntu.com/archives/locoteams-dev"
        ]
    }
}